%YAML 1.1
%TAG !u! tag:unity3d.com,2011:
--- !u!114 &11400000
MonoBehaviour:
  m_ObjectHideFlags: 0
  m_CorrespondingSourceObject: {fileID: 0}
  m_PrefabInstance: {fileID: 0}
  m_PrefabAsset: {fileID: 0}
  m_GameObject: {fileID: 0}
  m_Enabled: 1
  m_EditorHideFlags: 0
  m_Script: {fileID: 11500000, guid: 2eab1bfe47a3da442adcccc69596bdd8, type: 3}
  m_Name: Item_Star
  m_EditorClassIdentifier: 
  itemID: 3
  icon: {fileID: 21300000, guid: 2690c6334c0be9f44bc47bf1a2cdcf7c, type: 3}
  description: STAR
