%YAML 1.1
%TAG !u! tag:unity3d.com,2011:
--- !u!114 &11400000
MonoBehaviour:
  m_ObjectHideFlags: 0
  m_CorrespondingSourceObject: {fileID: 0}
  m_PrefabInstance: {fileID: 0}
  m_PrefabAsset: {fileID: 0}
  m_GameObject: {fileID: 0}
  m_Enabled: 1
  m_EditorHideFlags: 0
  m_Script: {fileID: 11500000, guid: 2eab1bfe47a3da442adcccc69596bdd8, type: 3}
  m_Name: Item_Bomb
  m_EditorClassIdentifier: 
  itemID: 12
  icon: {fileID: 21300000, guid: 1c3cc7f145bce2e4998320c9582fccf5, type: 3}
  description: Bomb
