%YAML 1.1
%TAG !u! tag:unity3d.com,2011:
--- !u!114 &11400000
MonoBehaviour:
  m_ObjectHideFlags: 0
  m_CorrespondingSourceObject: {fileID: 0}
  m_PrefabInstance: {fileID: 0}
  m_PrefabAsset: {fileID: 0}
  m_GameObject: {fileID: 0}
  m_Enabled: 1
  m_EditorHideFlags: 0
  m_Script: {fileID: 11500000, guid: 35d28b87d8e35324ab6453c5b5f19c31, type: 3}
  m_Name: BlockData_2_3_1235
  m_EditorClassIdentifier: 
  id: 9
  lstBlockPos:
  - {x: 0, y: 0}
  - {x: 1, y: 0}
  - {x: 2, y: 0}
  - {x: 1, y: 1}
